Into R
…
library(gapminder)
library(broom)
library(stargazer)

## 
## Please cite as:

##  Hlavac, Marek (2018). stargazer: Well-Formatted Regression and Summary Statistics Tables.

##  R package version 5.2.2. https://CRAN.R-project.org/package=stargazer

gapminder

## # A tibble: 1,704 x 6
##    country     continent  year lifeExp      pop gdpPercap
##    <fct>       <fct>     <int>   <dbl>    <int>     <dbl>
##  1 Afghanistan Asia       1952    28.8  8425333      779.
##  2 Afghanistan Asia       1957    30.3  9240934      821.
##  3 Afghanistan Asia       1962    32.0 10267083      853.
##  4 Afghanistan Asia       1967    34.0 11537966      836.
##  5 Afghanistan Asia       1972    36.1 13079460      740.
##  6 Afghanistan Asia       1977    38.4 14880372      786.
##  7 Afghanistan Asia       1982    39.9 12881816      978.
##  8 Afghanistan Asia       1987    40.8 13867957      852.
##  9 Afghanistan Asia       1992    41.7 16317921      649.
## 10 Afghanistan Asia       1997    41.8 22227415      635.
## #  with 1,694 more rows
…
#glance 
glance(model)

## # A tibble: 1 x 11
##   r.squared adj.r.squared sigma statistic  p.value    df logLik    AIC
##       <dbl>         <dbl> <dbl>     <dbl>    <dbl> <int>  <dbl>  <dbl>
## 1     0.190         0.189  11.6      399. 7.55e-80     2 -6598. 13202.
## #  with 3 more variables: BIC <dbl>, deviance <dbl>, df.residual <int>

#augment 
augment(model)

## # A tibble: 1,704 x 9
##    lifeExp  year .fitted .se.fit .resid     .hat .sigma  .cooksd .std.resid
##      <dbl> <int>   <dbl>   <dbl>  <dbl>    <dbl>  <dbl>    <dbl>      <dbl>
##  1    28.8  1952    50.5   0.530  -21.7 0.00208    11.6 0.00363       -1.87
##  2    30.3  1957    52.1   0.463  -21.8 0.00158    11.6 0.00279       -1.88
##  3    32.0  1962    53.8   0.401  -21.8 0.00119    11.6 0.00209       -1.87
##  4    34.0  1967    55.4   0.348  -21.4 0.000895   11.6 0.00151       -1.84
##  5    36.1  1972    57.0   0.307  -20.9 0.000698   11.6 0.00113       -1.80
##  6    38.4  1977    58.7   0.285  -20.2 0.000599   11.6 0.000907      -1.74
##  7    39.9  1982    60.3   0.285  -20.4 0.000599   11.6 0.000926      -1.76
##  8    40.8  1987    61.9   0.307  -21.1 0.000698   11.6 0.00115       -1.81
##  9    41.7  1992    63.5   0.348  -21.9 0.000895   11.6 0.00159       -1.88
## 10    41.8  1997    65.2   0.401  -23.4 0.00119    11.6 0.00242       -2.01
## #  with 1,694 more rows
…
##############
# nest : 

# gapminder %>% 
#   nest(year, lifeExp, pop, gdpPercap)
# 
# gapminder %>% 
#   nest(year:gdpPercap)

gapminder %>% 
  nest(-country, -continent)

## # A tibble: 142 x 3
##    country     continent data             
##    <fct>       <fct>     <list>           
##  1 Afghanistan Asia      <tibble [12  4]>
##  2 Albania     Europe    <tibble [12  4]>
##  3 Algeria     Africa    <tibble [12  4]>
##  4 Angola      Africa    <tibble [12  4]>
##  5 Argentina   Americas  <tibble [12  4]>
##  6 Australia   Oceania   <tibble [12  4]>
##  7 Austria     Europe    <tibble [12  4]>
##  8 Bahrain     Asia      <tibble [12  4]>
##  9 Bangladesh  Asia      <tibble [12  4]>
## 10 Belgium     Europe    <tibble [12  4]>
## #  with 132 more rows
…
########
# mutate 

gapminder %>% 
  nest(-country) %>%
  mutate(
    model = data %>% map(~lm(lifeExp~year, .)),
    tidy = model %>% map(tidy)
  ) %>% 
  unnest(tidy) %>% 
  filter(term == "year", p.value < 0.05, estimate > 0) %>% 
  arrange(-estimate)

## # A tibble: 134 x 6
##    country            term  estimate std.error statistic  p.value
##    <fct>              <chr>    <dbl>     <dbl>     <dbl>    <dbl>
##  1 Oman               year     0.772    0.0393      19.7 2.53e- 9
##  2 Vietnam            year     0.672    0.0220      30.6 3.29e-11
##  3 Saudi Arabia       year     0.650    0.0348      18.7 4.22e- 9
##  4 Indonesia          year     0.635    0.0108      58.8 4.93e-14
##  5 Libya              year     0.626    0.0258      24.3 3.19e-10
##  6 Yemen, Rep.        year     0.605    0.0265      22.8 5.87e-10
##  7 West Bank and Gaza year     0.601    0.0332      18.1 5.59e- 9
##  8 Tunisia            year     0.588    0.0261      22.5 6.64e-10
##  9 Gambia             year     0.582    0.0192      30.3 3.57e-11
## 10 Jordan             year     0.572    0.0319      17.9 6.31e- 9
## #  with 124 more rows
…
